R for Beginners
…
penguins[1, c(1, 4)]

# A tibble: 1 × 2
  species bill_depth_mm
  <fct>           <dbl>
1 Adelie           18.7

Negative Indexing

We can also exclude various elements using - and/or logical tests

penguins[,-1]

# A tibble: 344 × 7
   island bill_length_mm bill_depth_mm flipper_length_mm body_mass_g sex    year
   <fct>           <dbl>         <dbl>             <int>       <int> <fct> <int>
 1 Torge…           39.1          18.7               181        3750 male   2007
 2 Torge…           39.5          17.4               186        3800 fema…  2007
 3 Torge…           40.3          18                 195        3250 fema…  2007
 4 Torge…           NA            NA                  NA          NA <NA>   2007
 5 Torge…           36.7          19.3               193        3450 fema…  2007
 6 Torge…           39.3          20.6               190        3650 male   2007
 7 Torge…           38.9          17.8               181        3625 fema…  2007
 8 Torge…           39.2          19.6               195        4675 male   2007
 9 Torge…           34.1          18.1               193        3475 <NA>   2007
10 Torge…           42            20.2               190        4250 <NA>   2007
# ℹ 334 more rows
…
penguins$species[1:10]

 [1] Adelie Adelie Adelie Adelie Adelie Adelie Adelie Adelie Adelie Adelie
Levels: Adelie Chinstrap Gentoo

Indexing by Tests

penguins[penguins["sex"] == 'female', c('species', 'sex')]

# A tibble: 176 × 2
   species sex   
   <fct>   <fct> 
 1 Adelie  female
 2 Adelie  female
 3 <NA>    <NA>  
 4 Adelie  female
 5 Adelie  female
 6 <NA>    <NA>  
 7 <NA>    <NA>  
 8 <NA>    <NA>  
 9 <NA>    <NA>  
10 Adelie  female
# ℹ 166 more rows
…
Example

Get the average body mass of male chinstrap penguins after 2007.

Example

Get the average body mass of male chinstrap penguins after 2007.

penguins 

# A tibble: 344 × 8
   species island    bill_length_mm bill_depth_mm flipper_length_mm body_mass_g
   <fct>   <fct>              <dbl>         <dbl>             <int>       <int>
 1 Adelie  Torgersen           39.1          18.7               181        3750
 2 Adelie  Torgersen           39.5          17.4               186        3800
 3 Adelie  Torgersen           40.3          18                 195        3250
 4 Adelie  Torgersen           NA            NA                  NA          NA
 5 Adelie  Torgersen           36.7          19.3               193        3450
 6 Adelie  Torgersen           39.3          20.6               190        3650
 7 Adelie  Torgersen           38.9          17.8               181        3625
 8 Adelie  Torgersen           39.2          19.6               195        4675
 9 Adelie  Torgersen           34.1          18.1               193        3475
10 Adelie  Torgersen           42            20.2               190        4250
# ℹ 334 more rows
# ℹ 2 more variables: sex <fct>, year <int>

Example

Get the average body mass of male chinstrap penguins after 2007.

penguins |>
  filter(sex == 'male', species == 'Chinstrap', year > 2007) 

# A tibble: 21 × 8
   species   island bill_length_mm bill_depth_mm flipper_length_mm body_mass_g
   <fct>     <fct>           <dbl>         <dbl>             <int>       <int>
 1 Chinstrap Dream            49.5          19                 200        3800
 2 Chinstrap Dream            52.8          20                 205        4550
 3 Chinstrap Dream            54.2          20.8               201        4300
 4 Chinstrap Dream            51            18.8               203        4100
 5 Chinstrap Dream            49.7          18.6               195        3600
 6 Chinstrap Dream            52            20.7               210        4800
 7 Chinstrap Dream            53.5          19.9               205        4500
 8 Chinstrap Dream            49            19.5               210        3950
 9 Chinstrap Dream            50.9          19.1               196        3550
10 Chinstrap Dream            50.8          18.5               201        4450
# ℹ 11 more rows
# ℹ 2 more variables: sex <fct>, year <int>
…
Tidy Penguins

penguins

# A tibble: 344 × 8
   species island    bill_length_mm bill_depth_mm flipper_length_mm body_mass_g
   <fct>   <fct>              <dbl>         <dbl>             <int>       <int>
 1 Adelie  Torgersen           39.1          18.7               181        3750
 2 Adelie  Torgersen           39.5          17.4               186        3800
 3 Adelie  Torgersen           40.3          18                 195        3250
 4 Adelie  Torgersen           NA            NA                  NA          NA
 5 Adelie  Torgersen           36.7          19.3               193        3450
 6 Adelie  Torgersen           39.3          20.6               190        3650
 7 Adelie  Torgersen           38.9          17.8               181        3625
 8 Adelie  Torgersen           39.2          19.6               195        4675
 9 Adelie  Torgersen           34.1          18.1               193        3475
10 Adelie  Torgersen           42            20.2               190        4250
# ℹ 334 more rows
# ℹ 2 more variables: sex <fct>, year <int>
…
